%YAML 1.1
%TAG !u! tag:unity3d.com,2011:
--- !u!74 &7400000
AnimationClip:
  m_ObjectHideFlags: 0
  m_CorrespondingSourceObject: {fileID: 0}
  m_PrefabInstance: {fileID: 0}
  m_PrefabAsset: {fileID: 0}
  m_Name: Trepar
  serializedVersion: 6
  m_Legacy: 0
  m_Compressed: 0
  m_UseHighQualityCurve: 1
  m_RotationCurves: []
  m_CompressedRotationCurves: []
  m_EulerCurves: []
  m_PositionCurves: []
  m_ScaleCurves: []
  m_FloatCurves: []
  m_PPtrCurves:
  - curve:
    - time: 0
      value: {fileID: 21300000, guid: da188a94ad276534ba7d4ed9509f041b, type: 3}
    - time: 0.083333336
      value: {fileID: 21300000, guid: 58c4cd0957270f045b514643726bd4ef, type: 3}
    - time: 0.16666667
      value: {fileID: 21300000, guid: 88689a1884adf2746b2fd537a60a2359, type: 3}
    - time: 0.25
      value: {fileID: 21300000, guid: c63edbefc51a03f4db368b5d6479647c, type: 3}
    - time: 0.33333334
      value: {fileID: 21300000, guid: 2e52bb3066976774ea6a1a83abfcb9e2, type: 3}
    - time: 0.41666666
      value: {fileID: 21300000, guid: ed9deb395a486bf499c6a166d81fd2d3, type: 3}
    - time: 0.5
      value: {fileID: 21300000, guid: 12feaa37397e5a340b7654f056f7a46e, type: 3}
    - time: 0.5833333
      value: {fileID: 21300000, guid: 1640f186f8321df448ca018f8ef31129, type: 3}
    - time: 0.6666667
      value: {fileID: 21300000, guid: d088793c82918c14bb9c737f74266e2c, type: 3}
    - time: 0.75
      value: {fileID: 21300000, guid: 88c6901f7e4a0b549a55971ab004f1fb, type: 3}
    attribute: m_Sprite
    path: 
    classID: 212
    script: {fileID: 0}
  m_SampleRate: 12
  m_WrapMode: 0
  m_Bounds:
    m_Center: {x: 0, y: 0, z: 0}
    m_Extent: {x: 0, y: 0, z: 0}
  m_ClipBindingConstant:
    genericBindings:
    - serializedVersion: 2
      path: 0
      attribute: 0
      script: {fileID: 0}
      typeID: 212
      customType: 23
      isPPtrCurve: 1
    pptrCurveMapping:
    - {fileID: 21300000, guid: da188a94ad276534ba7d4ed9509f041b, type: 3}
    - {fileID: 21300000, guid: 58c4cd0957270f045b514643726bd4ef, type: 3}
    - {fileID: 21300000, guid: 88689a1884adf2746b2fd537a60a2359, type: 3}
    - {fileID: 21300000, guid: c63edbefc51a03f4db368b5d6479647c, type: 3}
    - {fileID: 21300000, guid: 2e52bb3066976774ea6a1a83abfcb9e2, type: 3}
    - {fileID: 21300000, guid: ed9deb395a486bf499c6a166d81fd2d3, type: 3}
    - {fileID: 21300000, guid: 12feaa37397e5a340b7654f056f7a46e, type: 3}
    - {fileID: 21300000, guid: 1640f186f8321df448ca018f8ef31129, type: 3}
    - {fileID: 21300000, guid: d088793c82918c14bb9c737f74266e2c, type: 3}
    - {fileID: 21300000, guid: 88c6901f7e4a0b549a55971ab004f1fb, type: 3}
  m_AnimationClipSettings:
    serializedVersion: 2
    m_AdditiveReferencePoseClip: {fileID: 0}
    m_AdditiveReferencePoseTime: 0
    m_StartTime: 0
    m_StopTime: 0.8333333
    m_OrientationOffsetY: 0
    m_Level: 0
    m_CycleOffset: 0
    m_HasAdditiveReferencePose: 0
    m_LoopTime: 1
    m_LoopBlend: 0
    m_LoopBlendOrientation: 0
    m_LoopBlendPositionY: 0
    m_LoopBlendPositionXZ: 0
    m_KeepOriginalOrientation: 0
    m_KeepOriginalPositionY: 1
    m_KeepOriginalPositionXZ: 0
    m_HeightFromFeet: 0
    m_Mirror: 0
  m_EditorCurves: []
  m_EulerEditorCurves: []
  m_HasGenericRootTransform: 0
  m_HasMotionFloatCurves: 0
  m_Events: []
