%YAML 1.1
%TAG !u! tag:unity3d.com,2011:
--- !u!74 &7400000
AnimationClip:
  m_ObjectHideFlags: 0
  m_CorrespondingSourceObject: {fileID: 0}
  m_PrefabInstance: {fileID: 0}
  m_PrefabAsset: {fileID: 0}
  m_Name: Zombie
  serializedVersion: 6
  m_Legacy: 0
  m_Compressed: 0
  m_UseHighQualityCurve: 1
  m_RotationCurves: []
  m_CompressedRotationCurves: []
  m_EulerCurves: []
  m_PositionCurves: []
  m_ScaleCurves: []
  m_FloatCurves: []
  m_PPtrCurves:
  - curve:
    - time: 0
      value: {fileID: 21300000, guid: 36816c3c2906eef42a85ceaf5fc92869, type: 3}
    - time: 0.083333336
      value: {fileID: 21300000, guid: 308909a2d23f2c343ab45f4168aef699, type: 3}
    - time: 0.16666667
      value: {fileID: 21300000, guid: b8b3e460fb2595c44bd209961a0eff87, type: 3}
    - time: 0.25
      value: {fileID: 21300000, guid: f68a3ce0834a13643b3366267a8f4c89, type: 3}
    - time: 0.33333334
      value: {fileID: 21300000, guid: cf6df6b309d06764eb71380cd8c6d00e, type: 3}
    - time: 0.41666666
      value: {fileID: 21300000, guid: 03c2ba78342db20488e187a3cb790f88, type: 3}
    - time: 0.5
      value: {fileID: 21300000, guid: a57635bc891326c4091f9cf8c226cc26, type: 3}
    - time: 0.5833333
      value: {fileID: 21300000, guid: 7c719e88e87a1414e8c373ddae9be47f, type: 3}
    - time: 0.6666667
      value: {fileID: 21300000, guid: 390ab49e617ff65489041171de4281f8, type: 3}
    - time: 0.75
      value: {fileID: 21300000, guid: e461ff71f3d0ce047b91eeae688c2bfe, type: 3}
    attribute: m_Sprite
    path: 
    classID: 212
    script: {fileID: 0}
  m_SampleRate: 12
  m_WrapMode: 0
  m_Bounds:
    m_Center: {x: 0, y: 0, z: 0}
    m_Extent: {x: 0, y: 0, z: 0}
  m_ClipBindingConstant:
    genericBindings:
    - serializedVersion: 2
      path: 0
      attribute: 0
      script: {fileID: 0}
      typeID: 212
      customType: 23
      isPPtrCurve: 1
    pptrCurveMapping:
    - {fileID: 21300000, guid: 36816c3c2906eef42a85ceaf5fc92869, type: 3}
    - {fileID: 21300000, guid: 308909a2d23f2c343ab45f4168aef699, type: 3}
    - {fileID: 21300000, guid: b8b3e460fb2595c44bd209961a0eff87, type: 3}
    - {fileID: 21300000, guid: f68a3ce0834a13643b3366267a8f4c89, type: 3}
    - {fileID: 21300000, guid: cf6df6b309d06764eb71380cd8c6d00e, type: 3}
    - {fileID: 21300000, guid: 03c2ba78342db20488e187a3cb790f88, type: 3}
    - {fileID: 21300000, guid: a57635bc891326c4091f9cf8c226cc26, type: 3}
    - {fileID: 21300000, guid: 7c719e88e87a1414e8c373ddae9be47f, type: 3}
    - {fileID: 21300000, guid: 390ab49e617ff65489041171de4281f8, type: 3}
    - {fileID: 21300000, guid: e461ff71f3d0ce047b91eeae688c2bfe, type: 3}
  m_AnimationClipSettings:
    serializedVersion: 2
    m_AdditiveReferencePoseClip: {fileID: 0}
    m_AdditiveReferencePoseTime: 0
    m_StartTime: 0
    m_StopTime: 0.8333333
    m_OrientationOffsetY: 0
    m_Level: 0
    m_CycleOffset: 0
    m_HasAdditiveReferencePose: 0
    m_LoopTime: 1
    m_LoopBlend: 0
    m_LoopBlendOrientation: 0
    m_LoopBlendPositionY: 0
    m_LoopBlendPositionXZ: 0
    m_KeepOriginalOrientation: 0
    m_KeepOriginalPositionY: 1
    m_KeepOriginalPositionXZ: 0
    m_HeightFromFeet: 0
    m_Mirror: 0
  m_EditorCurves: []
  m_EulerEditorCurves: []
  m_HasGenericRootTransform: 0
  m_HasMotionFloatCurves: 0
  m_Events: []
