[api-updater (non-obsolete-error-filter)] 30/09/2021 8:54:48 a. m. : Starting C:/Program Files/Unity/Hub/Editor/2020.3.16f1/Editor/Data/Tools/ScriptUpdater/APIUpdater.NonObsoleteApiUpdaterDetector.exe
[api-updater (non-obsolete-error-filter)] 
----------------------------------
jit/startup time      : 660.0488ms
moved types parse time: 68ms
candidates parse time : 1ms
C# parse time         : 269ms
candidates check time : 39ms
console write time    : 0ms

[api-updater (non-obsolete-error-filter)] 30/09/2021 9:01:29 a. m. : Starting C:/Program Files/Unity/Hub/Editor/2020.3.16f1/Editor/Data/Tools/ScriptUpdater/APIUpdater.NonObsoleteApiUpdaterDetector.exe
[api-updater (non-obsolete-error-filter)] 
----------------------------------
jit/startup time      : 148.6622ms
moved types parse time: 76ms
candidates parse time : 3ms
C# parse time         : 352ms
candidates check time : 57ms
console write time    : 0ms

[api-updater (non-obsolete-error-filter)] 30/09/2021 9:05:14 a. m. : Starting C:/Program Files/Unity/Hub/Editor/2020.3.16f1/Editor/Data/Tools/ScriptUpdater/APIUpdater.NonObsoleteApiUpdaterDetector.exe
[api-updater (non-obsolete-error-filter)] 
----------------------------------
jit/startup time      : 103.011ms
moved types parse time: 95ms
candidates parse time : 2ms
C# parse time         : 306ms
candidates check time : 42ms
console write time    : 0ms

[api-updater (non-obsolete-error-filter)] 30/09/2021 9:05:32 a. m. : Starting C:/Program Files/Unity/Hub/Editor/2020.3.16f1/Editor/Data/Tools/ScriptUpdater/APIUpdater.NonObsoleteApiUpdaterDetector.exe
[api-updater (non-obsolete-error-filter)] 
----------------------------------
jit/startup time      : 109.0156ms
moved types parse time: 69ms
candidates parse time : 1ms
C# parse time         : 308ms
candidates check time : 40ms
console write time    : 0ms

[api-updater (non-obsolete-error-filter)] 30/09/2021 9:29:53 a. m. : Starting C:/Program Files/Unity/Hub/Editor/2020.3.16f1/Editor/Data/Tools/ScriptUpdater/APIUpdater.NonObsoleteApiUpdaterDetector.exe
[api-updater (non-obsolete-error-filter)] 
----------------------------------
jit/startup time      : 120.6777ms
moved types parse time: 72ms
candidates parse time : 2ms
C# parse time         : 280ms
candidates check time : 45ms
console write time    : 0ms

